…
``` r
# install.packages("https://github.com/carlanetto/M4comp2018/releases/download/0.2.0/M4comp2018_0.2.0.tar.gz",
#                 repos=NULL)
library(M4comp2018)
data(M4)
# extract first two daily time series
M4_daily <- Filter(function(l) l$period == "Daily", M4)
# convert daily series into msts objects
M4_daily_msts <- lapply(M4_daily, function(temp){
  temp$x <- convert_msts(temp$x, "daily")
  return(temp)
})
# calculate features
seer::cal_features(M4_daily_msts, seasonal=TRUE, h=14, m=7, lagmax=8L, database="M4", highfreq=TRUE)
#> # A tibble: 4,227 x 26
#>    entropy lumpiness stability hurst trend spikiness linearity curvature e_acf1
#>      <dbl>     <dbl>     <dbl> <dbl> <dbl>     <dbl>     <dbl>     <dbl>  <dbl>
#>  1 0.00950   0.00214     0.621 1.00  0.993  1.09e-10     31.1      3.09   0.976
#>  2 0.211     0.331       0.446 1.00  0.865  2.53e- 8     24.7      1.35   0.986
#>  3 0.610     0.755       0.761 0.999 0.917  4.49e- 6      3.82     4.89   0.318
#>  4 0.741     0.168       0.821 0.996 0.841  3.86e- 6      1.87     6.38   0.290
#>  5 0.281     0.0140      0.991 1.00  0.988  4.64e- 8     11.3      0.878  0.376
#>  6 0.0430    0.00136     0.242 1.00  0.989  1.90e-10     29.8      8.27   0.973
#>  7 0.412     0.247       0.697 0.999 0.845  2.38e- 8     24.1      1.96   0.809
#>  8 0.141     0.0189      1.01  1.00  0.968  2.31e- 9     30.1     -4.98   0.963
#>  9 0.213     0.0275      1.07  1.00  0.954  4.69e- 9     29.3     -6.67   0.963
#> 10 0.438     0.00110     0.974 1.00  0.989  8.77e-10     18.3     -3.60   0.346
#> # … with 4,217 more rows, and 17 more variables: y_acf1 <dbl>,
#> #   diff1y_acf1 <dbl>, diff2y_acf1 <dbl>, y_pacf5 <dbl>, diff1y_pacf5 <dbl>,
#> #   diff2y_pacf5 <dbl>, nonlinearity <dbl>, seas_pacf <dbl>,
#> #   seasonal_strength1 <dbl>, seasonal_strength2 <dbl>, sediff_acf1 <dbl>,
#> #   sediff_seacf1 <dbl>, sediff_acf5 <dbl>, N <int>, y_acf5 <dbl>,
#> #   diff1y_acf5 <dbl>, diff2y_acf5 <dbl>
```
…
